R, it's OK I guess - Simulation, the tidy way
…
##  [1] -0.01464278  0.07959040  0.12642268  0.11989901  0.05910164
##  [6]  0.06355798 -0.13927125  0.02277575 -0.14046121  0.14216426

The output of this rerun is a list containing 10 random samples of size 100 each, and then the map_dbl calculates the mean of each of these (each list element, in general) returning a vector of 10 sample means.

For full tidiness, this ought to be done in a data frame. The output from rerun, though, is a list. If you convert it into a tibble, it comes across as a data frame with one column for each list element with no names, so I have to supply some:

rerun(10,rnorm(100)) %>% 
  as_tibble(validate=F) -> 
z
names(z)=str_c("X",sprintf("%02d",1:10))
z

## # A tibble: 100 x 10
##         X01    X02    X03    X04     X05     X06    X07     X08    X09
##       <dbl>  <dbl>  <dbl>  <dbl>   <dbl>   <dbl>  <dbl>   <dbl>  <dbl>
##  1  1.12    -0.734  2.01   0.124  0.978  -1.47   -1.60  -0.0530 -0.432
##  2  0.148    0.485  0.479 -0.448 -0.0324  0.332   0.767  2.02   -0.627
##  3  0.00855 -0.704  0.855  0.702 -1.70    0.277  -0.817  0.814   0.790
##  4 -0.739    0.532  1.79  -1.28  -0.575  -0.629   0.552 -2.88    0.282
##  5  0.986   -0.409 -0.465  2.84  -0.628   1.12   -1.74  -0.816   0.905
##  6 -0.941    0.502 -0.412  0.722  0.599   1.05    0.568  0.349   0.353
##  7 -0.917    0.169 -1.38  -0.891  1.60   -0.510   0.251 -0.209   1.17 
##  8  0.0183  -0.555  0.232  0.234  0.271  -0.856   0.184  0.337   0.121
##  9  0.519   -0.576  0.816  0.524 -0.216  -0.0174  1.30  -0.676   0.381
## 10  0.949   -0.211  0.406  0.391 -0.0616 -1.96    1.63  -0.903   0.807
## # ... with 90 more rows, and 1 more variable: X10 <dbl>
…
