R, it's OK I guess - Summarizing columns in the tidyverse
…
athletes

## # A tibble: 202 x 13
##       Sex   Sport   RCC   WCC    Hc    Hg  Ferr
##     <chr>   <chr> <dbl> <dbl> <dbl> <dbl> <int>
##  1 female Netball  4.56  13.3  42.2  13.6    20
##  2 female Netball  4.15   6.0  38.0  12.7    59
##  3 female Netball  4.16   7.6  37.5  12.3    22
##  4 female Netball  4.32   6.4  37.7  12.3    30
##  5 female Netball  4.06   5.8  38.7  12.8    78
##  6 female Netball  4.12   6.1  36.6  11.8    21
##  7 female Netball  4.17   5.0  37.4  12.7   109
##  8 female Netball  3.80   6.6  36.5  12.4   102
##  9 female Netball  3.96   5.5  36.3  12.4    71
## 10 female Netball  4.44   9.7  41.4  14.1    64
## # ... with 192 more rows, and 6 more variables:
## #   BMI <dbl>, SSF <dbl>, `%Bfat` <dbl>,
## #   LBM <dbl>, Ht <dbl>, Wt <dbl>
…
## # A tibble: 1 x 4
##   ht_mean    ht_sd  wt_mean    wt_sd
##     <dbl>    <dbl>    <dbl>    <dbl>
## 1 180.104 9.734494 75.00817 13.92557

That seemed like a lot work, and rather repetitious. Couldn’t I do better? Well, it turned out that I could, but I had some steps to go through first.

Selecting columns

If you want to just display some columns of a data frame, select is very flexible. You can select columns by number:

athletes %>% select(c(2,3))

## # A tibble: 202 x 2
##      Sport   RCC
##      <chr> <dbl>
##  1 Netball  4.56
##  2 Netball  4.15
##  3 Netball  4.16
##  4 Netball  4.32
##  5 Netball  4.06
##  6 Netball  4.12
##  7 Netball  4.17
##  8 Netball  3.80
##  9 Netball  3.96
## 10 Netball  4.44
## # ... with 192 more rows

or by names, without quotes:

athletes %>% select(Sport:WCC)

## # A tibble: 202 x 3
##      Sport   RCC   WCC
##      <chr> <dbl> <dbl>
##  1 Netball  4.56  13.3
##  2 Netball  4.15   6.0
##  3 Netball  4.16   7.6
##  4 Netball  4.32   6.4
##  5 Netball  4.06   5.8
##  6 Netball  4.12   6.1
##  7 Netball  4.17   5.0
##  8 Netball  3.80   6.6
##  9 Netball  3.96   5.5
## 10 Netball  4.44   9.7
## # ... with 192 more rows

But there is more. There’s a whole family of select helpers that let you choose columns whose names start with something:

athletes %>% select(starts_with("s"))

## # A tibble: 202 x 3
##       Sex   Sport   SSF
##     <chr>   <chr> <dbl>
##  1 female Netball  49.0
##  2 female Netball 110.2
##  3 female Netball  89.0
##  4 female Netball  98.3
##  5 female Netball 122.1
##  6 female Netball  90.4
##  7 female Netball 106.9
##  8 female Netball 156.6
##  9 female Netball 101.1
## 10 female Netball 126.4
## # ... with 192 more rows

or end with something: ⊕These are by default not case sensitive, but there is an option to make them so if you wish.

athletes %>% select(ends_with("cc"))

## # A tibble: 202 x 2
##      RCC   WCC
##    <dbl> <dbl>
##  1  4.56  13.3
##  2  4.15   6.0
##  3  4.16   7.6
##  4  4.32   6.4
##  5  4.06   5.8
##  6  4.12   6.1
##  7  4.17   5.0
##  8  3.80   6.6
##  9  3.96   5.5
## 10  4.44   9.7
## # ... with 192 more rows

or that contain something:

athletes %>% select(contains("er"))

## # A tibble: 202 x 1
##     Ferr
##    <int>
##  1    20
##  2    59
##  3    22
##  4    30
##  5    78
##  6    21
##  7   109
##  8   102
##  9    71
## 10    64
## # ... with 192 more rows

or that match a regular expression: ⊕In this case, are exactly two characters long with the first one being H.

athletes %>% select(matches("^H.$"))

## # A tibble: 202 x 3
##       Hc    Hg    Ht
##    <dbl> <dbl> <dbl>
##  1  42.2  13.6 176.8
##  2  38.0  12.7 172.6
##  3  37.5  12.3 176.0
##  4  37.7  12.3 169.9
##  5  38.7  12.8 183.0
##  6  36.6  11.8 178.2
##  7  37.4  12.7 177.3
##  8  36.5  12.4 174.1
##  9  36.3  12.4 173.6
## 10  41.4  14.1 173.7
## # ... with 192 more rows
…
