R, it's OK I guess - Rating rugby league with Stan
…
## 
## Attaching package: 'lubridate'

## The following object is masked from 'package:base':
## 
##     date

These are, respectively, for Bayesian modelling (later), the usual data tidying stuff, reading in Excel files, and handling dates and times (which we will be doing shortly).

Humble beginnings:

rl=read_excel("/home/ken/Documents/rugby-league.xlsx",col_names = "res",sheet=2)
rl

## # A tibble: 353 x 1
##    res                                               
##    <chr>                                             
##  1 Sun 29th Apr                                      
##  2 York City Knights 144 - 0 West Wales Raiders RL L1
##  3 Workington Town 10 - 32 Oldham RLFC L1            
##  4 Newcastle Thunder 28 - 10 Hunslet RLFC L1         
##  5 Keighley Cougars 24 - 30 Whitehaven RLFC L1       
##  6 Doncaster RLFC 6 - 32 Bradford Bulls L1           
##  7 Coventry Bears 20 - 28 London Skolars L1          
##  8 North Wales Crusaders 40 - 16 Hemel Stags L1      
##  9 Rochdale Hornets 16 - 38 Sheffield Eagles CH      
## 10 Leigh Centurions 46 - 18 Barrow Raiders CH        
## # ... with 343 more rows
…
CH (second level in England)

L1 (third level in England)

CC (a national knockout tournament)

NRL (Australian national league)

Many of the team names have spaces in them, and so simply splitting at spaces will entail more processing.

Before that, though, note that we have two kinds of lines here: one containing a date (and no results), which is the date for all the matches between it and the next date. Lines containing dates are easy to identify since they have no space-dash-space in them anywhere. So let’s begin by identifying whether each line is a “result” or not (a date). str_detect from stringr returns TRUE if the second thing is contained anywhere within each item of the first thing, which in this case will yield TRUE if the line refers to a game result and not a date:

rl %>% mutate(isres=str_detect(res," - "))

## # A tibble: 353 x 2
##    res                                                isres
##    <chr>                                              <lgl>
##  1 Sun 29th Apr                                       F    
##  2 York City Knights 144 - 0 West Wales Raiders RL L1 T    
##  3 Workington Town 10 - 32 Oldham RLFC L1             T    
##  4 Newcastle Thunder 28 - 10 Hunslet RLFC L1          T    
##  5 Keighley Cougars 24 - 30 Whitehaven RLFC L1        T    
##  6 Doncaster RLFC 6 - 32 Bradford Bulls L1            T    
##  7 Coventry Bears 20 - 28 London Skolars L1           T    
##  8 North Wales Crusaders 40 - 16 Hemel Stags L1       T    
##  9 Rochdale Hornets 16 - 38 Sheffield Eagles CH       T    
## 10 Leigh Centurions 46 - 18 Barrow Raiders CH         T    
## # ... with 343 more rows

Next we define a column date to be the date (if that’s what the line is, otherwise empty) and a column result to be the result, or empty, ditto. I got rid of the original res at the end of this process so you can see what there is more easily:

rl %>% mutate(isres=str_detect(res," - ")) %>% 
  mutate(date=ifelse(isres,"",res),
         result=ifelse(isres,res,"")) %>% 
  select(-res)

## # A tibble: 353 x 3
##    isres date         result                                            
##    <lgl> <chr>        <chr>                                             
##  1 F     Sun 29th Apr ""                                                
##  2 T     ""           York City Knights 144 - 0 West Wales Raiders RL L1
##  3 T     ""           Workington Town 10 - 32 Oldham RLFC L1            
##  4 T     ""           Newcastle Thunder 28 - 10 Hunslet RLFC L1         
##  5 T     ""           Keighley Cougars 24 - 30 Whitehaven RLFC L1       
##  6 T     ""           Doncaster RLFC 6 - 32 Bradford Bulls L1           
##  7 T     ""           Coventry Bears 20 - 28 London Skolars L1          
##  8 T     ""           North Wales Crusaders 40 - 16 Hemel Stags L1      
##  9 T     ""           Rochdale Hornets 16 - 38 Sheffield Eagles CH      
## 10 T     ""           Leigh Centurions 46 - 18 Barrow Raiders CH        
## # ... with 343 more rows

Those dates are text, but I can make them into real dates using lubridate. They are all year 2018, so if I glue the year onto the end, they are in day-month-year order, so dmy will parse them:

rl %>% mutate(isres=str_detect(res," - ")) %>% 
  mutate(date=ifelse(isres,"",res),
         result=ifelse(isres,res,"")) %>% 
  select(-res) %>% 
  mutate(date=dmy(str_c(date," 2018")))

## Warning: 295 failed to parse.

## # A tibble: 353 x 3
##    isres date       result                                            
##    <lgl> <date>     <chr>                                             
##  1 F     2018-04-29 ""                                                
##  2 T     NA         York City Knights 144 - 0 West Wales Raiders RL L1
##  3 T     NA         Workington Town 10 - 32 Oldham RLFC L1            
##  4 T     NA         Newcastle Thunder 28 - 10 Hunslet RLFC L1         
##  5 T     NA         Keighley Cougars 24 - 30 Whitehaven RLFC L1       
##  6 T     NA         Doncaster RLFC 6 - 32 Bradford Bulls L1           
##  7 T     NA         Coventry Bears 20 - 28 London Skolars L1          
##  8 T     NA         North Wales Crusaders 40 - 16 Hemel Stags L1      
##  9 T     NA         Rochdale Hornets 16 - 38 Sheffield Eagles CH      
## 10 T     NA         Leigh Centurions 46 - 18 Barrow Raiders CH        
## # ... with 343 more rows

The “dates” that are empty cannot be parsed as dates, so they are turned into missing values.

The reason for making the dates into real dates was so that they could be used as the dates for the game results. What we want to do is to replace all those NA values by the previous non-missing value, all the way down. This is a task that comes up often enough that tidyr has a function to do exactly that, called fill. By default it fills down from the previous non-missing value, which is what we want. (It can also be made to fill upwards from the next non-missing value.):

rl %>% mutate(isres=str_detect(res," - ")) %>% 
  mutate(date=ifelse(isres,"",res),
         result=ifelse(isres,res,"")) %>% 
  select(-res) %>% 
  mutate(date=dmy(str_c(date," 2018"))) %>% 
  fill(date)

## Warning: 295 failed to parse.

## # A tibble: 353 x 3
##    isres date       result                                            
##    <lgl> <date>     <chr>                                             
##  1 F     2018-04-29 ""                                                
##  2 T     2018-04-29 York City Knights 144 - 0 West Wales Raiders RL L1
##  3 T     2018-04-29 Workington Town 10 - 32 Oldham RLFC L1            
##  4 T     2018-04-29 Newcastle Thunder 28 - 10 Hunslet RLFC L1         
##  5 T     2018-04-29 Keighley Cougars 24 - 30 Whitehaven RLFC L1       
##  6 T     2018-04-29 Doncaster RLFC 6 - 32 Bradford Bulls L1           
##  7 T     2018-04-29 Coventry Bears 20 - 28 London Skolars L1          
##  8 T     2018-04-29 North Wales Crusaders 40 - 16 Hemel Stags L1      
##  9 T     2018-04-29 Rochdale Hornets 16 - 38 Sheffield Eagles CH      
## 10 T     2018-04-29 Leigh Centurions 46 - 18 Barrow Raiders CH        
## # ... with 343 more rows
…
rl %>% mutate(isres=str_detect(res," - ")) %>% 
  mutate(date=ifelse(isres,"",res),
         result=ifelse(isres,res,"")) %>% 
  select(-res) %>% 
  mutate(date=dmy(str_c(date," 2018"))) %>% 
  fill(date) %>% 
  filter(isres) %>% 
  select(-isres) ->
rl2

## Warning: 295 failed to parse.

rl2

## # A tibble: 290 x 2
##    date       result                                            
##    <date>     <chr>                                             
##  1 2018-04-29 York City Knights 144 - 0 West Wales Raiders RL L1
##  2 2018-04-29 Workington Town 10 - 32 Oldham RLFC L1            
##  3 2018-04-29 Newcastle Thunder 28 - 10 Hunslet RLFC L1         
##  4 2018-04-29 Keighley Cougars 24 - 30 Whitehaven RLFC L1       
##  5 2018-04-29 Doncaster RLFC 6 - 32 Bradford Bulls L1           
##  6 2018-04-29 Coventry Bears 20 - 28 London Skolars L1          
##  7 2018-04-29 North Wales Crusaders 40 - 16 Hemel Stags L1      
##  8 2018-04-29 Rochdale Hornets 16 - 38 Sheffield Eagles CH      
##  9 2018-04-29 Leigh Centurions 46 - 18 Barrow Raiders CH        
## 10 2018-04-29 Featherstone Rovers 50 - 12 Batley Bulldogs CH    
## # ... with 280 more rows

I am using the right-arrow to assign the result to rl2, which I put, unindented, on the next line, to remind myself that I am creating this new data frame.

Now we have to deal with that result column.
I learned Perl, which is a great language for handling text like this. The idea there is that you use a “regular expression” with “capture groups” to identify and extract the things you want. A similar tidyverse functionality lives in extract from tidyr. I’m doing to do this in three steps. The first step is to separate result into the bit before the space-dash-space. In fact, I can use separate for this bit:

rl2 %>% 
  separate(result,into=c("first","second"),sep=" - ")

## # A tibble: 290 x 3
##    date       first                    second                    
##    <date>     <chr>                    <chr>                     
##  1 2018-04-29 York City Knights 144    0 West Wales Raiders RL L1
##  2 2018-04-29 Workington Town 10       32 Oldham RLFC L1         
##  3 2018-04-29 Newcastle Thunder 28     10 Hunslet RLFC L1        
##  4 2018-04-29 Keighley Cougars 24      30 Whitehaven RLFC L1     
##  5 2018-04-29 Doncaster RLFC 6         32 Bradford Bulls L1      
##  6 2018-04-29 Coventry Bears 20        28 London Skolars L1      
##  7 2018-04-29 North Wales Crusaders 40 16 Hemel Stags L1         
##  8 2018-04-29 Rochdale Hornets 16      38 Sheffield Eagles CH    
##  9 2018-04-29 Leigh Centurions 46      18 Barrow Raiders CH      
## 10 2018-04-29 Featherstone Rovers 50   12 Batley Bulldogs CH     
## # ... with 280 more rows

Now we can’t use separate any more, because sometimes space separates the thing we want, and sometimes it separates words in a team name. This is where extract comes in, as we tackle part 2.

first contains some text (the home team’s name), then a space, then one or more digits, then the end of the string. The following extracts those pieces (I explain my regular expression below):

rl2 %>% 
  separate(result,into=c("first","second"),sep=" - ") %>% 
  tidyr::extract(first,c("t1","s1"),"(.*)\\s(\\d+)$") 

## # A tibble: 290 x 4
##    date       t1                    s1    second                    
##    <date>     <chr>                 <chr> <chr>                     
##  1 2018-04-29 York City Knights     144   0 West Wales Raiders RL L1
##  2 2018-04-29 Workington Town       10    32 Oldham RLFC L1         
##  3 2018-04-29 Newcastle Thunder     28    10 Hunslet RLFC L1        
##  4 2018-04-29 Keighley Cougars      24    30 Whitehaven RLFC L1     
##  5 2018-04-29 Doncaster RLFC        6     32 Bradford Bulls L1      
##  6 2018-04-29 Coventry Bears        20    28 London Skolars L1      
##  7 2018-04-29 North Wales Crusaders 40    16 Hemel Stags L1         
##  8 2018-04-29 Rochdale Hornets      16    38 Sheffield Eagles CH    
##  9 2018-04-29 Leigh Centurions      46    18 Barrow Raiders CH      
## 10 2018-04-29 Featherstone Rovers   50    12 Batley Bulldogs CH     
## # ... with 280 more rows
…
$ matches the end of the text, so that the digits have to be right at the end. (This would help if a team was called something like “Bassenthwaite Wanderers RLFC (1897)”, with numbers in it.)

If you were wondering how .* knew to match everything except the numbers at the end: well, regular expressions are by default “greedy” in that they match as much as possible such that the whole regular expression will still match something. In this case, .* can match everything up to (but not including) the space before the score, and “space then some digits then the end” will match the score, so it still works.

Part three is to do the same thing to second. This is a teeny bit more complicated, but the same idea: the beginning of the string, some digits (the away team’s score), a space, some text (the away team’s name), a space, some more text that does not contain spaces (league designator), end of the string. So the regular expression shown below will catch it:

rl2 %>% 
  separate(result,into=c("first","second"),sep=" - ") %>% 
  tidyr::extract(first,c("t1","s1"),"(.*)\\s(\\d+)$") %>% 
  tidyr::extract(second,c("s2","t2","lg"),"^(\\d+)\\s(.*)\\s([^ ]+)$") %>% 
  mutate(diff=as.numeric(s1)-as.numeric(s2)) ->
games
games

## # A tibble: 290 x 7
##    date       t1                    s1    s2    t2           lg       diff
##    <date>     <chr>                 <chr> <chr> <chr>        <chr>   <dbl>
##  1 2018-04-29 York City Knights     144   0     West Wales … L1     144   
##  2 2018-04-29 Workington Town       10    32    Oldham RLFC  L1    - 22.0 
##  3 2018-04-29 Newcastle Thunder     28    10    Hunslet RLFC L1      18.0 
##  4 2018-04-29 Keighley Cougars      24    30    Whitehaven … L1    -  6.00
##  5 2018-04-29 Doncaster RLFC        6     32    Bradford Bu… L1    - 26.0 
##  6 2018-04-29 Coventry Bears        20    28    London Skol… L1    -  8.00
##  7 2018-04-29 North Wales Crusaders 40    16    Hemel Stags  L1      24.0 
##  8 2018-04-29 Rochdale Hornets      16    38    Sheffield E… CH    - 22.0 
##  9 2018-04-29 Leigh Centurions      46    18    Barrow Raid… CH      28.0 
## 10 2018-04-29 Featherstone Rovers   50    12    Batley Bull… CH      38.0 
## # ... with 280 more rows
…
