Ken's Blog - Tufte-esque
…
## Conflicts with tidy packages ----------------------------------------------

## filter(): dplyr, stats
## lag():    dplyr, stats

d=tibble(xx=rnorm(100),yy=rnorm(100))
d

## # A tibble: 100 x 2
##            xx         yy
##         <dbl>      <dbl>
##  1  0.9926509 -0.9659317
##  2 -0.3215167  0.5636860
##  3 -0.4577031 -2.2274024
##  4  0.0495168 -0.7863670
##  5  1.4182106 -0.9891459
##  6 -2.0964501  0.5778579
##  7  0.7116801 -0.2883248
##  8 -1.1256143 -0.7107532
##  9  0.3044245 -0.2939939
## 10  0.6464043 -0.8893617
## # ... with 90 more rows
…
