R, it's OK I guess - Ward's method and dissimilarities
…
It would be a lot easier to extract the first letter if the number
names were all in one column. ⊕When all you have is gather, everything looks like a wide data frame.

lang.long = lang %>% mutate(number=row_number()) %>%
    gather(language,name,-number) %>%
    mutate(first=str_sub(name,1,1))
lang.long 

## # A tibble: 110 x 4
##    number language name  first
##     <int> <chr>    <chr> <chr>
##  1      1 en       one   o    
##  2      2 en       two   t    
##  3      3 en       three t    
##  4      4 en       four  f    
##  5      5 en       five  f    
##  6      6 en       six   s    
##  7      7 en       seven s    
##  8      8 en       eight e    
##  9      9 en       nine  n    
## 10     10 en       ten   t    
## # ... with 100 more rows
…
##  [1] "en" "no" "dk" "nl" "de" "fr" "es" "it" "pl" "hu" "fi"

and then all pairs of languages:

pairs=crossing(lang=languages, lang2=languages) 

Run countdiff for all those language pairs:

thediffs = pairs %>% 
    mutate(diff=map2_int(lang,lang2,countdiff,lang.long)) %>% 
    print(n=12)

## # A tibble: 121 x 3
##    lang  lang2  diff
##    <chr> <chr> <int>
##  1 de    de        0
##  2 de    dk        5
##  3 de    en        6
##  4 de    es        7
##  5 de    fi        9
##  6 de    fr        7
##  7 de    hu        9
##  8 de    it        7
##  9 de    nl        5
## 10 de    no        4
## 11 de    pl        8
## 12 dk    de        5
## # ... with 109 more rows
…
