Ken's Blog - Displaying grouped bar charts in ggplot
…
athletes

## # A tibble: 202 x 13
##    Sex   Sport   RCC   WCC    Hc    Hg  Ferr   BMI   SSF `%Bf…   LBM    Ht
##    <chr> <chr> <dbl> <dbl> <dbl> <dbl> <int> <dbl> <dbl> <dbl> <dbl> <dbl>
##  1 fema… Netb…  4.56 13.3   42.2  13.6    20  19.2  49.0  11.3  53.1   177
##  2 fema… Netb…  4.15  6.00  38.0  12.7    59  21.2 110    25.3  47.1   173
##  3 fema… Netb…  4.16  7.60  37.5  12.3    22  21.4  89.0  19.4  53.4   176
##  4 fema… Netb…  4.32  6.40  37.7  12.3    30  21.0  98.3  19.6  48.8   170
##  5 fema… Netb…  4.06  5.80  38.7  12.8    78  21.8 122    23.1  56.0   183
##  6 fema… Netb…  4.12  6.10  36.6  11.8    21  21.4  90.4  16.9  56.4   178
##  7 fema… Netb…  4.17  5.00  37.4  12.7   109  21.5 107    21.3  53.1   177
##  8 fema… Netb…  3.80  6.60  36.5  12.4   102  24.4 157    26.6  54.4   174
##  9 fema… Netb…  3.96  5.50  36.3  12.4    71  22.6 101    17.9  56.0   174
## 10 fema… Netb…  4.44  9.70  41.4  14.1    64  22.8 126    25.0  51.6   174
## # ... with 192 more rows, and 1 more variable: Wt <dbl>
…
