R, it's OK I guess - Un-counting
…
This needs tidying to get the frequencies all into one column:

miners0 %>% 
  gather(disease, freq, -Exposure) -> miners
miners

## # A tibble: 24 x 3
##    Exposure disease   freq
##       <dbl> <chr>    <dbl>
##  1      5.8 None        98
##  2     15   None        51
##  3     21.5 None        34
##  4     27.5 None        35
##  5     33.5 None        32
##  6     39.5 None        23
##  7     46   None        12
##  8     51.5 None         4
##  9      5.8 Moderate     0
## 10     15   Moderate     2
## # … with 14 more rows

So I wanted to fit an ordered logistic regression in Stan, predicting disease category from exposure, but I didn’t know how to handle the frequencies. If I had one row per miner, I thought…

miners %>% uncount(freq) 

## # A tibble: 371 x 2
##    Exposure disease
##       <dbl> <chr>  
##  1      5.8 None   
##  2      5.8 None   
##  3      5.8 None   
##  4      5.8 None   
##  5      5.8 None   
##  6      5.8 None   
##  7      5.8 None   
##  8      5.8 None   
##  9      5.8 None   
## 10      5.8 None   
## # … with 361 more rows
…
