Ken's Blog - A foray into list-columns
…
##  5     4 0.515491059
##  6     5 0.721621440
##  7     6 0.868857427
##  8     7 0.949987460
##  9     8 0.984757474
## 10     9 0.996347479
## 11    10 0.999327766
## 12    11 0.999908341
## 13    12 0.999991281
## 14    13 0.999999483
## 15    14 0.999999986
## 16    15 1.000000000
## 
## [[3]]
## # A tibble: 21 x 2
##        x         prob
##    <int>        <dbl>
##  1     0 6.415844e-06
##  2     1 1.114024e-04
##  3     2 9.274341e-04
##  4     3 4.933408e-03
##  5     4 1.886327e-02
##  6     5 5.533419e-02
##  7     6 1.299338e-01
##  8     7 2.520059e-01
##  9     8 4.143062e-01
## 10     9 5.913612e-01
## # ... with 11 more rows

which produces a list, or we can glue all the results together into a data frame:

map2(n,p,binom_table) %>% bind_rows(.id="which") %>% 
  print(n=20)

## # A tibble: 48 x 3
##    which     x        prob
##    <chr> <int>       <dbl>
##  1     1     0 0.056313515
##  2     1     1 0.244025230
##  3     1     2 0.525592804
##  4     1     3 0.775875092
##  5     1     4 0.921873093
##  6     1     5 0.980272293
##  7     1     6 0.996494293
##  8     1     7 0.999584198
##  9     1     8 0.999970436
## 10     1     9 0.999999046
## 11     1    10 1.000000000
## 12     2     0 0.004747562
## 13     2     1 0.035267600
## 14     2     2 0.126827715
## 15     2     3 0.296867928
## 16     2     4 0.515491059
## 17     2     5 0.721621440
## 18     2     6 0.868857427
## 19     2     7 0.949987460
## 20     2     8 0.984757474
## # ... with 28 more rows
…
