R, it's OK I guess - Getting data from a frequency table, the tidyverse way
…
I don’t really need the ~ form here, but I think it reads nicely: “for each speed_int and count (in parallel),
repeat the first thing as many times as the second thing”. Each entry in speed is a vector as long as the entry in count.

Making a data frame of speeds

Now, I need to get the actual speeds out of there. This is a job for unnest:

counts %>% mutate(speed=map2(speed_int,count,~rep(.x,.y))) %>% 
  unnest()

## # A tibble: 1,000 x 3
##    speed_int count speed
##        <dbl> <dbl> <dbl>
##  1      25.0  2.00  25.0
##  2      25.0  2.00  25.0
##  3      26.0 31.0   26.0
##  4      26.0 31.0   26.0
##  5      26.0 31.0   26.0
##  6      26.0 31.0   26.0
##  7      26.0 31.0   26.0
##  8      26.0 31.0   26.0
##  9      26.0 31.0   26.0
## 10      26.0 31.0   26.0
## # ... with 990 more rows
…
Shuffling the rows

I wanted to present my students with a file containing a bunch of speeds in apparently random order
(as if they were the speeds of 1000 cars in the order they passed the speed gun). I remembered sample_frac,
which randomly selects a fraction of the rows of a data frame, but didn’t realize (until I looked at the Stack Overflow post
referenced below) that sampling a fraction 1 of the rows will sample them all, but in a shuffled order, in the same
way that sample when not supplied a sample size will randomly sample all of its input (that is, shuffle it).
Thus I can do this:

counts %>% mutate(speed=map2(speed_int,count,~rep(.x,.y))) %>% 
  unnest() %>% 
  sample_frac(1)

## # A tibble: 1,000 x 3
##    speed_int count speed
##        <dbl> <dbl> <dbl>
##  1      30.0 156    30.0
##  2      32.0  99.0  32.0
##  3      35.0  16.0  35.0
##  4      31.0 157    31.0
##  5      28.0 149    28.0
##  6      34.0  31.0  34.0
##  7      31.0 157    31.0
##  8      31.0 157    31.0
##  9      29.0 178    29.0
## 10      28.0 149    28.0
## # ... with 990 more rows

and do a bit of tidying before I save the results:

counts %>% mutate(speed=map2(speed_int,count,~rep(.x,.y))) %>% 
  unnest() %>% 
  sample_frac(1) %>% 
  mutate(car_no=row_number()) %>% 
  select(car_no,speed)

## # A tibble: 1,000 x 2
##    car_no speed
##     <int> <dbl>
##  1      1  28.0
##  2      2  27.0
##  3      3  30.0
##  4      4  27.0
##  5      5  27.0
##  6      6  29.0
##  7      7  30.0
##  8      8  30.0
##  9      9  28.0
## 10     10  31.0
## # ... with 990 more rows
…
