R, it's OK I guess - Too many dates
…
The lines of the file are rugby league results: the home team, the home team’s score, the away team, and the away team’s score, followed by a line FT (for “full time”). In amongst these are scattered dates, which are the dates of all the games below them until the next date. In the excerpt above, there was one game played on October 7, two on September 30, a whole bunch on September 23, and so on.

All right, I thought, I have lubridate. Let’s have it recognize, or fail to recognize, the dates. Then I can decide what to do next:

my_url="https://raw.githubusercontent.com/nxskok/flashscore/master/2018-l1.txt"
games=read_csv(my_url, col_names=F)

## Parsed with column specification:
## cols(
##   X1 = col_character()
## )

games

## # A tibble: 979 x 1
##    X1                   
##    <chr>                
##  1 SUNDAY 7TH OCTOBER   
##  2 Bradford Bulls RLFC  
##  3 27                   
##  4 Workington Town      
##  5 8                    
##  6 FT                   
##  7 SUNDAY 30TH SEPTEMBER
##  8 Doncaster RLFC       
##  9 18                   
## 10 Workington Town      
## # … with 969 more rows
…
and now I’m thinking that I can use str_detect to find out whether each row matches one of those. Except that str_detect matches only one string, not a vector of them. I wasn’t clever enough to think of this myself (I found it on Stack Overflow somewhere): you make a vector of strings into a regular expression with a bunch of ORs by collapsing the vector like this:

pat=str_c(dow, collapse="|")
pat

## [1] "SUNDAY|MONDAY|TUESDAY|WEDNESDAY|THURSDAY|FRIDAY|SATURDAY"

So now, if each line of the file matches that regular expression (that is to say, one of those days of the week), it is a date, and we can pull out just the dates:

games %>% filter(str_detect(X1, pat)) %>% 
  mutate(date_of=dmy(str_c(X1, 2018, sep=" "))) -> lookup
lookup

## # A tibble: 54 x 2
##    X1                      date_of   
##    <chr>                   <date>    
##  1 SUNDAY 7TH OCTOBER      2018-10-07
##  2 SUNDAY 30TH SEPTEMBER   2018-09-30
##  3 SUNDAY 23RD SEPTEMBER   2018-09-23
##  4 SATURDAY 22ND SEPTEMBER 2018-09-22
##  5 SUNDAY 16TH SEPTEMBER   2018-09-16
##  6 SATURDAY 15TH SEPTEMBER 2018-09-15
##  7 SUNDAY 9TH SEPTEMBER    2018-09-09
##  8 SATURDAY 8TH SEPTEMBER  2018-09-08
##  9 SUNDAY 2ND SEPTEMBER    2018-09-02
## 10 FRIDAY 24TH AUGUST      2018-08-24
## # … with 44 more rows

Those all got converted to dates properly.

Looking up the dates in the original file

This gives us a “lookup table” of lines from the original file, plus the actual dates they correspond to. So what we can do is to look them up in the original data frame games, and get a date where they can be found and a missing otherwise. This is left_join, thus:

games %>% left_join(lookup) %>% mutate(is_missing=is.na(date_of))

## Joining, by = "X1"

## # A tibble: 979 x 3
##    X1                    date_of    is_missing
##    <chr>                 <date>     <lgl>     
##  1 SUNDAY 7TH OCTOBER    2018-10-07 FALSE     
##  2 Bradford Bulls RLFC   NA         TRUE      
##  3 27                    NA         TRUE      
##  4 Workington Town       NA         TRUE      
##  5 8                     NA         TRUE      
##  6 FT                    NA         TRUE      
##  7 SUNDAY 30TH SEPTEMBER 2018-09-30 FALSE     
##  8 Doncaster RLFC        NA         TRUE      
##  9 18                    NA         TRUE      
## 10 Workington Town       NA         TRUE      
## # … with 969 more rows

The column we want to look up is X1, which is also what it’s called in the lookup table, so we are spared having to worry about by. I added an extra column that notes whether each date is missing or not, for use later.

Matching dates to games

Back above, I said that the dates were the dates on which each of the games below them were played (until you get to another date). Thus, Bradford-Workington was played on October 7 and Doncaster-Workington on September 30. At this point I remembered using fill for a task like this, and in fact it does exactly what I want: it fills in all the missing values in the date_of column with the date above them:

games %>% left_join(lookup) %>% 
  mutate(is_missing=is.na(date_of)) %>% 
  fill(date_of)

## Joining, by = "X1"

## # A tibble: 979 x 3
##    X1                    date_of    is_missing
##    <chr>                 <date>     <lgl>     
##  1 SUNDAY 7TH OCTOBER    2018-10-07 FALSE     
##  2 Bradford Bulls RLFC   2018-10-07 TRUE      
##  3 27                    2018-10-07 TRUE      
##  4 Workington Town       2018-10-07 TRUE      
##  5 8                     2018-10-07 TRUE      
##  6 FT                    2018-10-07 TRUE      
##  7 SUNDAY 30TH SEPTEMBER 2018-09-30 FALSE     
##  8 Doncaster RLFC        2018-09-30 TRUE      
##  9 18                    2018-09-30 TRUE      
## 10 Workington Town       2018-09-30 TRUE      
## # … with 969 more rows

Now the text dates in the X1 column have served their purpose, and I can get rid of them. This was why I created the column is_missing: this is TRUE if I want to keep the row, and FALSE if I want to get rid of it. So I use is_missing in a filter, and then I get rid of it too, since it has also served its purpose:

games %>% left_join(lookup) %>% 
  mutate(is_missing=is.na(date_of)) %>% 
  fill(date_of) %>% 
  filter(is_missing) %>% 
  select(-is_missing) -> games1

## Joining, by = "X1"

games1

## # A tibble: 925 x 2
##    X1                  date_of   
##    <chr>               <date>    
##  1 Bradford Bulls RLFC 2018-10-07
##  2 27                  2018-10-07
##  3 Workington Town     2018-10-07
##  4 8                   2018-10-07
##  5 FT                  2018-10-07
##  6 Doncaster RLFC      2018-09-30
##  7 18                  2018-09-30
##  8 Workington Town     2018-09-30
##  9 30                  2018-09-30
## 10 FT                  2018-09-30
## # … with 915 more rows
…
You can see how useful this is for factor levels for designed experiments. In GLIM days, you would copy the response-variable values out of a book (or off a piece of paper), and then you would use %GL to create vectors of the factor levels they went with.

So we want to number the games: 5 repeats of 1, 5 repeats of 2, …, 5 repeats of 185 (there being 185 games in the season).

We also need to create, for each game, the five column names that we are going to spread the values into. gl takes an optional labels with names for the “factor levels”:

n_games=185
games1 %>% 
  mutate(match_no=gl(n_games,5)) %>% 
  mutate(column_names=gl(5, 1, 5*n_games, labels=c("t1", "s1", "t2", "s2", "ft"))) -> games2
games2

## # A tibble: 925 x 4
##    X1                  date_of    match_no column_names
##    <chr>               <date>     <fct>    <fct>       
##  1 Bradford Bulls RLFC 2018-10-07 1        t1          
##  2 27                  2018-10-07 1        s1          
##  3 Workington Town     2018-10-07 1        t2          
##  4 8                   2018-10-07 1        s2          
##  5 FT                  2018-10-07 1        ft          
##  6 Doncaster RLFC      2018-09-30 2        t1          
##  7 18                  2018-09-30 2        s1          
##  8 Workington Town     2018-09-30 2        t2          
##  9 30                  2018-09-30 2        s2          
## 10 FT                  2018-09-30 2        ft          
## # … with 915 more rows

Now we have all the ingredients we need for our spread:

games2 %>% spread(column_names, X1, convert=T) %>% 
  select(-ft)

## # A tibble: 185 x 6
##    date_of    match_no t1                       s1 t2                    s2
##    <date>     <fct>    <chr>                 <int> <chr>              <int>
##  1 2018-02-18 180      Hemel Stags              14 Hunslet               28
##  2 2018-02-18 181      North Wales Crusaders    24 London Skolars        24
##  3 2018-02-18 182      Doncaster RLFC           70 Coventry Bears        10
##  4 2018-02-18 183      Keighley Cougars         44 Workington Town       34
##  5 2018-02-18 184      Whitehaven RLFC           0 Oldham                14
##  6 2018-02-18 185      York City Knights        20 Bradford Bulls RL…    22
##  7 2018-03-10 179      London Skolars           16 Newcastle Thunder     60
##  8 2018-03-11 173      Hemel Stags              16 Coventry Bears        22
##  9 2018-03-11 174      Workington Town          74 West Wales Raiders     6
## 10 2018-03-11 175      Oldham                   22 York City Knights     24
## # … with 175 more rows
…
