R, it's OK I guess - Estimating sigma using quantiles
…
and then pull out the estimates so that we can summarize them:

rerun(5,rnorm(50)) %>% 
  enframe(name="sample_number", value="sample") %>% 
  mutate(ests=map(sample, ~estimates(.,divs))) %>% 
  unnest(ests)

## # A tibble: 45 x 3
##    sample_number     q sigma_hat
##            <int> <dbl>     <dbl>
##  1             1 0.01      0.984
##  2             1 0.025     0.978
##  3             1 0.05      1.01 
##  4             1 0.075     1.10 
##  5             1 0.1       1.10 
##  6             1 0.15      1.08 
##  7             1 0.2       1.04 
##  8             1 0.25      1.15 
##  9             1 0.4       1.26 
## 10             2 0.01      0.976
## # … with 35 more rows
…
