R, it's OK I guess - Making a lot of plots all at once, the tidyverse way
…
That thing randoms is a so-called list-column. In a list-column, each entry can be any kind of thing that you can save in an R variable, in this case a vector of 1000 integers. Except that you can’t see the actual values yet.

To see them, you unnest them:

d %>% unnest(randoms)

## # A tibble: 5,000 x 2
##    lambda randoms
##     <dbl>   <int>
##  1  0.300       1
##  2  0.300       0
##  3  0.300       0
##  4  0.300       0
##  5  0.300       0
##  6  0.300       1
##  7  0.300       0
##  8  0.300       0
##  9  0.300       0
## 10  0.300       1
## # ... with 4,990 more rows
…
