…
##  [1]  TRUE  TRUE  TRUE  TRUE  TRUE  TRUE  TRUE  TRUE  TRUE  TRUE  TRUE
## [12]  TRUE  TRUE  TRUE  TRUE  TRUE  TRUE  TRUE  TRUE  TRUE  TRUE  TRUE
## [23]  TRUE  TRUE  TRUE  TRUE  TRUE  TRUE  TRUE  TRUE  TRUE  TRUE  TRUE
## [34]  TRUE  TRUE  TRUE  TRUE  TRUE  TRUE  TRUE FALSE FALSE FALSE FALSE
## [45] FALSE FALSE

html %>% html_nodes("rect") %>% 
  html_attrs() %>% 
  .[want] -> wanted_rect
do.call(rbind,wanted_rect) %>% as.tibble() %>% 
  modify_if(is.character,as.numeric) -> d
d

## # A tibble: 40 x 4
##    height    width          x      y
##     <dbl>    <dbl>      <dbl>  <dbl>
##  1 114.00 16.45545   8.227723 201.00
##  2 228.00 16.45545  49.366337  87.00
##  3 270.75 16.45545  90.504950  44.25
##  4  99.75 16.45545 131.643564 215.25
##  5  71.25 16.45545 172.782178 243.75
##  6 128.25 16.45545 213.920792 186.75
##  7  57.00 16.45545 255.059406 258.00
##  8  14.25 16.45545 296.198020 300.75
##  9 114.00 16.45545 337.336634 201.00
## 10  85.50 16.45545 378.475248 229.50
## # ... with 30 more rows
…
This works out the GCD of 12 and 20, getting 4, and then works out the GCD of 4 and 34, getting 2. So, now we can find the height in our bar chart that goes with 1 run:

k=1000
h1=reduce(d$height*k,gcd)
h1/k

## [1] 14.25

14.25, and then create a new column that is the number of runs:

d %>% mutate(runs=height*k/h1) -> d
d

## # A tibble: 40 x 5
##    height    width          x      y  runs
##     <dbl>    <dbl>      <dbl>  <dbl> <dbl>
##  1 114.00 16.45545   8.227723 201.00     8
##  2 228.00 16.45545  49.366337  87.00    16
##  3 270.75 16.45545  90.504950  44.25    19
##  4  99.75 16.45545 131.643564 215.25     7
##  5  71.25 16.45545 172.782178 243.75     5
##  6 128.25 16.45545 213.920792 186.75     9
##  7  57.00 16.45545 255.059406 258.00     4
##  8  14.25 16.45545 296.198020 300.75     1
##  9 114.00 16.45545 337.336634 201.00     8
## 10  85.50 16.45545 378.475248 229.50     6
## # ... with 30 more rows
…
