…
In actuality, Bradford and Wakefield have two stations and Pontefract has three, but I treated each place as having only one station to simplify things. (The rail network around Wakefield Kirkgate is complicated, with one line passing under another without being connected.)

To read this in, I treat it as a one-column .csv, since some of the stations have spaces inside their names:

yorks=read_csv("yorkshire.txt")

## Parsed with column specification:
## cols(
##   station = col_character()
## )

yorks %>% print(n=20)

## # A tibble: 145 x 1
##    station             
##    <chr>               
##  1 Skipton             
##  2 Cononley            
##  3 Steeton & Silsden   
##  4 Keighley            
##  5 Crossflatts         
##  6 Bingley             
##  7 Saltaire            
##  8 Shipley             
##  9 Frizinghall         
## 10 Bradford            
## 11 <NA>                
## 12 Shipley             
## 13 Apperley Bridge     
## 14 Kirkstall Forge     
## 15 Leeds               
## 16 <NA>                
## 17 Ilkley              
## 18 Ben Rhydding        
## 19 Burley-in-Wharfedale
## 20 Menston             
## # ... with 125 more rows

Now, how to connect each station with the next one on the list? I realized that the lag function would do exactly this:

yorks %>% mutate(station2=lag(station)) %>% 
  print(n=20)

## # A tibble: 145 x 2
##    station              station2            
##    <chr>                <chr>               
##  1 Skipton              <NA>                
##  2 Cononley             Skipton             
##  3 Steeton & Silsden    Cononley            
##  4 Keighley             Steeton & Silsden   
##  5 Crossflatts          Keighley            
##  6 Bingley              Crossflatts         
##  7 Saltaire             Bingley             
##  8 Shipley              Saltaire            
##  9 Frizinghall          Shipley             
## 10 Bradford             Frizinghall         
## 11 <NA>                 Bradford            
## 12 Shipley              <NA>                
## 13 Apperley Bridge      Shipley             
## 14 Kirkstall Forge      Apperley Bridge     
## 15 Leeds                Kirkstall Forge     
## 16 <NA>                 Leeds               
## 17 Ilkley               <NA>                
## 18 Ben Rhydding         Ilkley              
## 19 Burley-in-Wharfedale Ben Rhydding        
## 20 Menston              Burley-in-Wharfedale
## # ... with 125 more rows

and now the rows of this data frame will be the edges of my graph. Separating the routes with NA was an accidentally-smart thing to do, since if I remove all the rows with NA in them, I will get only the genuine edges I want for my graph:

yorks2 = yorks %>% 
  mutate(station2=lag(station)) %>% 
  filter(!is.na(station),!is.na(station2)) %>% 
  print(n=20)

## # A tibble: 110 x 2
##    station              station2            
##    <chr>                <chr>               
##  1 Cononley             Skipton             
##  2 Steeton & Silsden    Cononley            
##  3 Keighley             Steeton & Silsden   
##  4 Crossflatts          Keighley            
##  5 Bingley              Crossflatts         
##  6 Saltaire             Bingley             
##  7 Shipley              Saltaire            
##  8 Frizinghall          Shipley             
##  9 Bradford             Frizinghall         
## 10 Apperley Bridge      Shipley             
## 11 Kirkstall Forge      Apperley Bridge     
## 12 Leeds                Kirkstall Forge     
## 13 Ben Rhydding         Ilkley              
## 14 Burley-in-Wharfedale Ben Rhydding        
## 15 Menston              Burley-in-Wharfedale
## 16 Guiseley             Menston             
## 17 Baildon              Guiseley            
## 18 Shipley              Baildon             
## 19 Kirkstall Forge      Guiseley            
## 20 Burley Park          Leeds               
## # ... with 90 more rows
…
The nodes and edges are shown separately, with the nodes numbered (those numbers are used in the edges).

Extracting the nodes and edges

tidygraph uses the same pipeline ideas as the tidyverse, but extra care is required because a tidy graph object has both nodes and edges in it. An extra verb activate lets you specify which one you would like to be “primary” (but you can also access the other one). Piping the output of activate into as_tibble lets you save the nodes or edges as a data frame, separately:

nodes = yorks_g %>% 
  activate(nodes) %>% 
  as_tibble() %>% 
  mutate(node_number=row_number()) %>%
  print(n=10)

## # A tibble: 98 x 2
##    name              node_number
##    <chr>                   <int>
##  1 Cononley                    1
##  2 Steeton & Silsden           2
##  3 Keighley                    3
##  4 Crossflatts                 4
##  5 Bingley                     5
##  6 Saltaire                    6
##  7 Shipley                     7
##  8 Frizinghall                 8
##  9 Bradford                    9
## 10 Apperley Bridge            10
## # ... with 88 more rows

edges = yorks_g %>% 
  activate(edges) %>% 
  as_tibble() %>% print(n=10)

## # A tibble: 110 x 2
##     from    to
##    <int> <int>
##  1     1    97
##  2     2     1
##  3     3     2
##  4     4     3
##  5     5     4
##  6     6     5
##  7     7     6
##  8     8     7
##  9     9     8
## 10    10     7
## # ... with 100 more rows

I saved the node numbers as well as names into the nodes data frame. This lets me look up the names of the nodes referred to in the edges, to convince myself that I have something sensible:

edges %>% 
  left_join(nodes,by=c("from"="node_number")) %>% 
  left_join(nodes,by=c("to"="node_number")) %>% 
  print(n=20)

## # A tibble: 110 x 4
##     from    to name.x               name.y              
##    <int> <int> <chr>                <chr>               
##  1     1    97 Cononley             Skipton             
##  2     2     1 Steeton & Silsden    Cononley            
##  3     3     2 Keighley             Steeton & Silsden   
##  4     4     3 Crossflatts          Keighley            
##  5     5     4 Bingley              Crossflatts         
##  6     6     5 Saltaire             Bingley             
##  7     7     6 Shipley              Saltaire            
##  8     8     7 Frizinghall          Shipley             
##  9     9     8 Bradford             Frizinghall         
## 10    10     7 Apperley Bridge      Shipley             
## 11    11    10 Kirkstall Forge      Apperley Bridge     
## 12    12    11 Leeds                Kirkstall Forge     
## 13    13    98 Ben Rhydding         Ilkley              
## 14    14    13 Burley-in-Wharfedale Ben Rhydding        
## 15    15    14 Menston              Burley-in-Wharfedale
## 16    16    15 Guiseley             Menston             
## 17    17    16 Baildon              Guiseley            
## 18     7    17 Shipley              Baildon             
## 19    11    16 Kirkstall Forge      Guiseley            
## 20    18    12 Burley Park          Leeds               
## # ... with 90 more rows
…
