…
The actual data has an observed value of 11, which is unlikely but still just possible according to the posterior predictive distribution, and the shapes of the distributions are otherwise similar, so I would call this acceptably good.

Real data: English soccer scores

I mentioned earlier that a smart way to develop a model in Stan is to fit to data of a known distribution before checking that it behaves itself before letting it loose on real data. The model seems to work, so let’s take some real data now. I’ve chosen soccer scores from England for the 2017-2018 season up to the current date (Febrary 28, 2018) which are available from here, and I saved on my local machine:

england=read_excel("/home/ken/all-euro-data-2017-2018.xlsx",sheet = "E0")
england

## # A tibble: 279 x 65
##    Div   Date                HomeTeam    AwayTeam   FTHG  FTAG FTR    HTHG
##    <chr> <dttm>              <chr>       <chr>     <dbl> <dbl> <chr> <dbl>
##  1 E0    2017-08-11 00:00:00 Arsenal     Leicester  4.00  3.00 H      2.00
##  2 E0    2017-08-12 00:00:00 Brighton    Man City   0     2.00 A      0   
##  3 E0    2017-08-12 00:00:00 Chelsea     Burnley    2.00  3.00 A      0   
##  4 E0    2017-08-12 00:00:00 Crystal Pa… Huddersf…  0     3.00 A      0   
##  5 E0    2017-08-12 00:00:00 Everton     Stoke      1.00  0    H      1.00
##  6 E0    2017-08-12 00:00:00 Southampton Swansea    0     0    D      0   
##  7 E0    2017-08-12 00:00:00 Watford     Liverpool  3.00  3.00 D      2.00
##  8 E0    2017-08-12 00:00:00 West Brom   Bournemo…  1.00  0    H      1.00
##  9 E0    2017-08-13 00:00:00 Man United  West Ham   4.00  0    H      1.00
## 10 E0    2017-08-13 00:00:00 Newcastle   Tottenham  0     2.00 A      0   
## # ... with 269 more rows, and 57 more variables: HTAG <dbl>, HTR <chr>,
## #   Referee <chr>, HS <dbl>, AS <dbl>, HST <dbl>, AST <dbl>, HF <dbl>,
## #   AF <dbl>, HC <dbl>, AC <dbl>, HY <dbl>, AY <dbl>, HR <dbl>, AR <dbl>,
## #   B365H <dbl>, B365D <dbl>, B365A <dbl>, BWH <dbl>, BWD <dbl>,
## #   BWA <dbl>, IWH <dbl>, IWD <dbl>, IWA <dbl>, LBH <dbl>, LBD <dbl>,
## #   LBA <dbl>, PSH <dbl>, PSD <dbl>, PSA <dbl>, WHH <dbl>, WHD <dbl>,
## #   WHA <dbl>, VCH <dbl>, VCD <dbl>, VCA <dbl>, Bb1X2 <dbl>, BbMxH <dbl>,
## #   BbAvH <dbl>, BbMxD <dbl>, BbAvD <dbl>, BbMxA <dbl>, BbAvA <dbl>,
## #   BbOU <dbl>, `BbMx>2.5` <dbl>, `BbAv>2.5` <dbl>, `BbMx<2.5` <dbl>,
…
