…
Looking good so far.

We need to make this longer to do anything useful with it. Each column name encodes two things: a detergent name and a temperature, and this can be made longer in one shot by using two things in names_to in pivot_longer. This means I also have to say what those two names are separated by (which I forgot the first time, but the error message was helpful):

laundry %>% 
  pivot_longer(everything(), names_to=c("detergent", "temperature"), 
               names_sep="_", 
               values_to="dirt_removed") -> laundry_tidy
laundry_tidy

## # A tibble: 24 x 3
##    detergent temperature dirt_removed
##    <chr>     <chr>              <dbl>
##  1 Super     Cold                   4
##  2 Super     Warm                   7
##  3 Super     Hot                   10
##  4 Best      Cold                   6
##  5 Best      Warm                  13
##  6 Best      Hot                   12
##  7 Super     Cold                   5
##  8 Super     Warm                   9
##  9 Super     Hot                   12
## 10 Best      Cold                   6
## # … with 14 more rows
…
We have several values for dirt removed, separated by columns. We could use separate to create four new columns and pivot them longer as well. But there is a better way:

laundry_2 %>% pivot_longer(-Detergent, names_to="Temperature", values_to="Dirt_removed") %>% 
  separate_rows(Dirt_removed, convert=T) 

## # A tibble: 24 x 3
##    Detergent Temperature Dirt_removed
##    <chr>     <chr>              <int>
##  1 Super     Cold                   4
##  2 Super     Cold                   5
##  3 Super     Cold                   6
##  4 Super     Cold                   5
##  5 Super     Warm                   7
##  6 Super     Warm                   9
##  7 Super     Warm                   8
##  8 Super     Warm                  12
##  9 Super     Hot                   10
## 10 Super     Hot                   12
## # … with 14 more rows
…
