…
Longer first

I usually find it easier to make the dataframe longer first, and then figure out what to do next. Here, that means putting all the data values in one column, and having a column of variable names indicating what each variable is a value of, thus:

gas %>% pivot_longer(X2:X6, names_to = "var_name", values_to = "var_value")

## # A tibble: 60 x 3
##    X1       var_name var_value
##    <chr>    <chr>        <dbl>
##  1 Fillup   X2             1  
##  2 Fillup   X3             2  
##  3 Fillup   X4             3  
##  4 Fillup   X5             4  
##  5 Fillup   X6             5  
##  6 Computer X2            41.5
##  7 Computer X3            50.7
##  8 Computer X4            36.6
##  9 Computer X5            37.3
## 10 Computer X6            34.2
## # … with 50 more rows
…
This works because X1=="Fillup" is either true or false. cumsum takes cumulative sums; that is, the sum of all the values in the column down to and including the one you’re looking at. It requires numeric input, though, so it turns the logical values into 1 for TRUE and 0 for FALSE and adds those up. (This is the same thing that as.numeric does.) The idea is that the value of block gets bumped by one every time you hit a Fillup line.

Then pivot-longer as before:

gas %>% mutate(block = cumsum(X1=="Fillup")) %>% 
  pivot_longer(X2:X6, names_to = "var_name", values_to = "var_value")

## # A tibble: 60 x 4
##    X1       block var_name var_value
##    <chr>    <int> <chr>        <dbl>
##  1 Fillup       1 X2             1  
##  2 Fillup       1 X3             2  
##  3 Fillup       1 X4             3  
##  4 Fillup       1 X5             4  
##  5 Fillup       1 X6             5  
##  6 Computer     1 X2            41.5
##  7 Computer     1 X3            50.7
##  8 Computer     1 X4            36.6
##  9 Computer     1 X5            37.3
## 10 Computer     1 X6            34.2
## # … with 50 more rows
…
