…
athletes

## # A tibble: 202 x 13
##       Sex   Sport   RCC   WCC    Hc    Hg  Ferr   BMI   SSF `%Bfat`
##     <chr>   <chr> <dbl> <dbl> <dbl> <dbl> <int> <dbl> <dbl>   <dbl>
##  1 female Netball  4.56  13.3  42.2  13.6    20 19.16  49.0   11.29
##  2 female Netball  4.15   6.0  38.0  12.7    59 21.15 110.2   25.26
##  3 female Netball  4.16   7.6  37.5  12.3    22 21.40  89.0   19.39
##  4 female Netball  4.32   6.4  37.7  12.3    30 21.03  98.3   19.63
##  5 female Netball  4.06   5.8  38.7  12.8    78 21.77 122.1   23.11
##  6 female Netball  4.12   6.1  36.6  11.8    21 21.38  90.4   16.86
##  7 female Netball  4.17   5.0  37.4  12.7   109 21.47 106.9   21.32
##  8 female Netball  3.80   6.6  36.5  12.4   102 24.45 156.6   26.57
##  9 female Netball  3.96   5.5  36.3  12.4    71 22.63 101.1   17.93
## 10 female Netball  4.44   9.7  41.4  14.1    64 22.80 126.4   24.97
## # ... with 192 more rows, and 3 more variables: LBM <dbl>, Ht <dbl>,
## #   Wt <dbl>
…
## Parsed with column specification:
## cols(
##   pct.a.surf = col_double(),
##   pct.a.base = col_double(),
##   fines = col_double(),
##   voids = col_double(),
##   rut.depth = col_double(),
##   viscosity = col_double(),
##   run = col_integer()
## )

asphalt

## # A tibble: 31 x 7
##    pct.a.surf pct.a.base fines voids rut.depth viscosity   run
##         <dbl>      <dbl> <dbl> <dbl>     <dbl>     <dbl> <int>
##  1       4.68       4.87   8.4 4.916      6.75      2.80     1
##  2       5.19       4.50   6.5 4.563     13.00      1.40     1
##  3       4.82       4.73   7.9 5.321     14.75      1.40     1
##  4       4.85       4.76   8.3 4.865     12.60      3.30     1
##  5       4.86       4.95   8.4 3.776      8.25      1.70     1
##  6       5.16       4.45   7.4 4.397     10.67      2.90     1
##  7       4.82       5.05   6.8 4.867      7.28      3.70     1
##  8       4.86       4.70   8.6 4.828     12.67      1.70     1
##  9       4.78       4.84   6.7 4.865     12.58      0.92     1
## 10       5.16       4.76   7.7 4.034     20.60      0.68     1
## # ... with 21 more rows

How can we plot rut.depth against each of the other variables, one per facet? ggplot likes to have a data frame with one column of \(y\)-values to plot, and one column of \(x\)-values. How can we make this? By gathering up all the explanatory variables into one column, keeping track of which \(x\)-variable is which:

asphalt %>% gather(xname,x,c(pct.a.surf:voids,viscosity:run))

## # A tibble: 186 x 3
##    rut.depth      xname     x
##        <dbl>      <chr> <dbl>
##  1      6.75 pct.a.surf  4.68
##  2     13.00 pct.a.surf  5.19
##  3     14.75 pct.a.surf  4.82
##  4     12.60 pct.a.surf  4.85
##  5      8.25 pct.a.surf  4.86
##  6     10.67 pct.a.surf  5.16
##  7      7.28 pct.a.surf  4.82
##  8     12.67 pct.a.surf  4.86
##  9     12.58 pct.a.surf  4.78
## 10     20.60 pct.a.surf  5.16
## # ... with 176 more rows
…
There is evidence of non-linear relationships (especially with viscosity) and uneven spread (clearest with run), which suggests that some variable re-expression is in order. After a little experimentation, I found that using logs of rut depth and of viscosity straightened things out nicely. We could include these transformations in our pipe, but I find it easier to do the transformations first and save the result, saving myself some repetition later:

asphalt2=asphalt %>% 
  mutate(log.viscosity=log(viscosity),log.rut.depth=log(rut.depth))
asphalt2

## # A tibble: 31 x 9
##    pct.a.surf pct.a.base fines voids rut.depth viscosity   run
##         <dbl>      <dbl> <dbl> <dbl>     <dbl>     <dbl> <int>
##  1       4.68       4.87   8.4 4.916      6.75      2.80     1
##  2       5.19       4.50   6.5 4.563     13.00      1.40     1
##  3       4.82       4.73   7.9 5.321     14.75      1.40     1
##  4       4.85       4.76   8.3 4.865     12.60      3.30     1
##  5       4.86       4.95   8.4 3.776      8.25      1.70     1
##  6       5.16       4.45   7.4 4.397     10.67      2.90     1
##  7       4.82       5.05   6.8 4.867      7.28      3.70     1
##  8       4.86       4.70   8.6 4.828     12.67      1.70     1
##  9       4.78       4.84   6.7 4.865     12.58      0.92     1
## 10       5.16       4.76   7.7 4.034     20.60      0.68     1
## # ... with 21 more rows, and 2 more variables: log.viscosity <dbl>,
## #   log.rut.depth <dbl>
…
There are no patterns on this plot: the points look randomly scattered, which is good. The two groups of points (one on the left and one on the right) are not a problem; there just is a bunch of small fitted values and a bunch of larger ones with a gap in between.

We should also plot the residuals against each of the explanatory variables, to see whether we have the form of the relationship right for each one. The problem is that the residuals and fitted values are in one place (rut.1) and the explanatory variables are in another (asphalt2). A nice way to solve this is to use augment from package broom to create a dataset with both the original data and things calculated from the model:

library(broom)
augment(rut.1,asphalt2) %>% as_tibble()

## # A tibble: 31 x 16
##    pct.a.surf pct.a.base fines voids rut.depth viscosity   run
##         <dbl>      <dbl> <dbl> <dbl>     <dbl>     <dbl> <int>
##  1       4.68       4.87   8.4 4.916      6.75      2.80     1
##  2       5.19       4.50   6.5 4.563     13.00      1.40     1
##  3       4.82       4.73   7.9 5.321     14.75      1.40     1
##  4       4.85       4.76   8.3 4.865     12.60      3.30     1
##  5       4.86       4.95   8.4 3.776      8.25      1.70     1
##  6       5.16       4.45   7.4 4.397     10.67      2.90     1
##  7       4.82       5.05   6.8 4.867      7.28      3.70     1
##  8       4.86       4.70   8.6 4.828     12.67      1.70     1
##  9       4.78       4.84   6.7 4.865     12.58      0.92     1
## 10       5.16       4.76   7.7 4.034     20.60      0.68     1
## # ... with 21 more rows, and 9 more variables: log.viscosity <dbl>,
## #   log.rut.depth <dbl>, .fitted <dbl>, .se.fit <dbl>, .resid <dbl>,
## #   .hat <dbl>, .sigma <dbl>, .cooksd <dbl>, .std.resid <dbl>
…
