Ken's Blog - Tidy simple effects in analysis of variance
…
Let’s read in and check the data:

my_url="http://www.utsc.utoronto.ca/~butler/d29/oddity.csv"
monkeys=read_csv(my_url)

## Parsed with column specification:
## cols(
##   motivation = col_character(),
##   drug = col_character(),
##   score = col_integer()
## )

monkeys

## # A tibble: 24 x 3
##    motivation drug    score
##    <chr>      <chr>   <int>
##  1 low        control     1
##  2 low        control     4
##  3 low        control     0
##  4 low        control     7
##  5 low        X          13
##  6 low        X           5
##  7 low        X           7
##  8 low        X          15
##  9 low        Y           9
## 10 low        Y          16
## # ... with 14 more rows
…
