R, it's OK I guess - Readr and summary
…
bridges

## # A tibble: 108 x 13
##    id    river location erected purpose  length lanes clear_g t_d    
##    <chr> <chr>    <dbl> <chr>   <chr>    <chr>  <int> <chr>   <chr>  
##  1 E1    M         3.00 CRAFTS  HIGHWAY  <NA>       2 N       THROUGH
##  2 E2    A        25.0  CRAFTS  HIGHWAY  MEDIUM     2 N       THROUGH
##  3 E3    A        39.0  CRAFTS  AQUEDUCT <NA>       1 N       THROUGH
##  4 E5    A        29.0  CRAFTS  HIGHWAY  MEDIUM     2 N       THROUGH
##  5 E6    M        23.0  CRAFTS  HIGHWAY  <NA>       2 N       THROUGH
##  6 E7    A        27.0  CRAFTS  HIGHWAY  SHORT      2 N       THROUGH
##  7 E8    A        28.0  CRAFTS  AQUEDUCT MEDIUM     1 N       THROUGH
##  8 E9    M         3.00 CRAFTS  HIGHWAY  MEDIUM     2 N       THROUGH
##  9 E10   A        39.0  CRAFTS  AQUEDUCT <NA>       1 N       DECK   
## 10 E11   A        29.0  CRAFTS  HIGHWAY  MEDIUM     2 N       THROUGH
## # ... with 98 more rows, and 4 more variables: material <chr>, span <chr>,
## #   rel_l <chr>, type <chr>
…
