Ken's Blog - The Designated Hitter
…
It looks as if the newlines split each piece of text into exactly 10 pieces, which was a lucky break and saved us having to do anything more sophisticated. Also, the road team is in column 4, the home team in column 7, the road team’s score in column 5 and the home team’s score in column 8, so now we can pull these out of the matrix and into a new data frame.

Unfortunately, if you look carefully, the team names all have two extra spaces on the front, and since we are going to look them up later, we should get rid of those spaces now. trimws removes any leading or trailing whitespace, which is exactly what we want.

There’s one more thing: the scores are in brackets, which you might think would need some regular expression trickery to extract, but no: there is a handy function parse_number that extracts the numeric part of any text. Finally, we need to calculate the total number of runs in each game, and store all of that in a data frame:

scores=tibble(t1=trimws(m[,4]),
              t2=trimws(m[,7]),
              s1=parse_number(m[,5]),
              s2=parse_number(m[,8]),
              runs=s1+s2)
scores

## # A tibble: 2,460 x 5
##                      t1                    t2    s1    s2  runs
##                   <chr>                 <chr> <dbl> <dbl> <dbl>
##  1       Boston Red Sox     Oakland Athletics     6     5    11
##  2       Boston Red Sox     Oakland Athletics     1     5     6
##  3       Atlanta Braves  Washington Nationals     2     3     5
##  4        Texas Rangers      Seattle Mariners     2     5     7
##  5 LA Angels of Anaheim       Minnesota Twins     2     3     5
##  6   Kansas City Royals        Detroit Tigers     5     4     9
##  7    Chicago White Sox     Cleveland Indians     8    10    18
##  8       Tampa Bay Rays     Baltimore Orioles     6     2     8
##  9       Houston Astros      San Diego Padres     0     4     4
## 10 Washington Nationals Philadelphia Phillies    11     6    17
## # ... with 2,450 more rows
…
write_csv(tibble(teams),"teams.csv")

OK, I’m back. I made a copy of that file before adding to it:

teams2=read_csv("teams2.csv")

## Parsed with column specification:
## cols(
##   teams = col_character(),
##   leagues = col_character()
## )

teams2

## # A tibble: 30 x 2
##                    teams  leagues
##                    <chr>    <chr>
##  1     Oakland Athletics American
##  2  Washington Nationals National
##  3      Seattle Mariners American
##  4       Minnesota Twins American
##  5        Detroit Tigers American
##  6     Cleveland Indians American
##  7     Baltimore Orioles American
##  8      San Diego Padres National
##  9 Philadelphia Phillies National
## 10        Atlanta Braves National
## # ... with 20 more rows
…
teams2 %>% count(leagues)

## # A tibble: 2 x 2
##    leagues     n
##      <chr> <int>
## 1 American    14
## 2 National    16

so it looks as if I got the league memberships correct.

Now, the lookup. Database people call this a “join”, which is also the name of the idea in dplyr. I want to match the column called t2 in scores with the column called teams in teams2, which the by below does:

scores %>% left_join(teams2,by=c("t2"="teams"))

## # A tibble: 2,460 x 6
##                      t1                    t2    s1    s2  runs  leagues
##                   <chr>                 <chr> <dbl> <dbl> <dbl>    <chr>
##  1       Boston Red Sox     Oakland Athletics     6     5    11 American
##  2       Boston Red Sox     Oakland Athletics     1     5     6 American
##  3       Atlanta Braves  Washington Nationals     2     3     5 National
##  4        Texas Rangers      Seattle Mariners     2     5     7 American
##  5 LA Angels of Anaheim       Minnesota Twins     2     3     5 American
##  6   Kansas City Royals        Detroit Tigers     5     4     9 American
##  7    Chicago White Sox     Cleveland Indians     8    10    18 American
##  8       Tampa Bay Rays     Baltimore Orioles     6     2     8 American
##  9       Houston Astros      San Diego Padres     0     4     4 National
## 10 Washington Nationals Philadelphia Phillies    11     6    17 National
## # ... with 2,450 more rows

If you scroll across, you’ll see that each game has acquired the league membership of its home team, and you can eyeball these 10 to make sure that they are correct (they seem to be).

For our analysis, we only need the total number of runs in each game and the league membership of the home team, so let’s save only what we need:

byleague=scores %>% left_join(teams2,by=c("t2"="teams")) %>% 
  select(runs,leagues)
byleague

## # A tibble: 2,460 x 2
##     runs  leagues
##    <dbl>    <chr>
##  1    11 American
##  2     6 American
##  3     5 National
##  4     7 American
##  5     5 American
##  6     9 American
##  7    18 American
##  8     8 American
##  9     4 National
## 10    17 National
## # ... with 2,450 more rows
…
