R, it's OK I guess - Scraping Icelandic soccer results with rvest and selenium
…
separate out the score column into the home team’s score and the away team’s score

which can be achieved this way:

gamelist %>% 
  enframe() %>% 
  filter(name<ll) %>% unnest() %>% 
  select(Date:`Away team`) %>% 
  filter(str_detect(`Score/Time`," - ")) %>% 
  mutate(thedate=dmy(Date)) %>% 
  fill(thedate) %>% 
  separate(`Score/Time`, into=c("s1", "s2")) %>% 
  select(date=thedate, t1=`Home team`, s1, t2=`Away team`, s2)

## # A tibble: 114 x 5
##    date       t1                 s1    t2         s2   
##    <date>     <chr>              <chr> <chr>      <chr>
##  1 2018-08-25 Víkingur Reykjavík 2     KA         2    
##  2 2018-08-25 Stjarnan           2     Breidablik 1    
##  3 2018-08-25 Valur              5     Fjölnir    3    
##  4 2018-08-26 KR                 4     ÍBV        1    
##  5 2018-08-26 Keflavík           1     FH         3    
##  6 2018-08-27 Fylkir             3     Grindavík  1    
##  7 2018-08-29 Stjarnan           1     Valur      1    
##  8 2018-08-31 Keflavík           1     Fylkir     2    
##  9 2018-09-02 Fjölnir            1     Stjarnan   3    
## 10 2018-09-02 KA                 3     Valur      3    
## # ... with 104 more rows
…
