R, it's OK I guess - Testing for time trend
…
## Using ',' as decimal and '.' as grouping mark. Use read_delim() for more control.

## Warning: Missing column names filled in: 'X1' [1]

## Parsed with column specification:
## cols(
##   .default = col_integer()
## )

## See spec(...) for full column specifications.

icefree

## # A tibble: 41 x 37
##       X1   `1`   `2`   `3`   `4`   `5`   `6`   `7`   `8`   `9`  `10`  `11`
##    <int> <int> <int> <int> <int> <int> <int> <int> <int> <int> <int> <int>
##  1  1971    NA    NA    NA    NA    NA    NA    NA    NA    NA    NA    NA
##  2  1972   140    NA   117   105    NA    98   112    NA   126   112    98
##  3  1973    NA    NA    NA    NA    NA    NA    NA    NA    NA   133    NA
##  4  1974    NA   134    NA   120   127   105   120   127    NA   113   112
##  5  1975    NA    NA    NA   126    NA   126    NA    NA    NA   154   133
##  6  1976   147   147   154   119   133   147   133   147   147   126   140
##  7  1977    NA    NA    NA    NA    NA    NA    NA    NA    NA   175   154
##  8  1978   168   147   154   133   133   140   119   133   154   119   105
##  9  1979   168   182   140   126   154   126   140   140   133   161   147
## 10  1980   175   182   175   126   126   126   133   133   189   119   126
## # ... with 31 more rows, and 25 more variables: `12` <int>, `13` <int>,
## #   `14` <int>, `15` <int>, `16` <int>, `17` <int>, `18` <int>,
## #   `19` <int>, `20` <int>, `21` <int>, `22` <int>, `23` <int>,
## #   `24` <int>, `25` <int>, `26` <int>, `27` <int>, `28` <int>,
## #   `29` <int>, `30` <int>, `31` <int>, `32` <int>, `33` <int>,
## #   `34` <int>, `35` <int>, `36` <int>

The locations are in numbered columns. Because of the way the readr functions work, these are not converted into “legal” column names (by affixing an X), so we would need to refer to them with backticks. The first column, X1, is the year. The data values are in days.

Since there are 36 columns that are all numbers of days, the data frame is not tidy. We should gather together the columns for the different locations, thus, and turn the text locations into numeric ones:

icefree_2 <- icefree %>% gather(location,days,-1) %>% 
  rename(year=X1) %>% 
  mutate(location=as.integer(location))
icefree_2

## # A tibble: 1,476 x 3
##     year location  days
##    <int>    <int> <int>
##  1  1971        1    NA
##  2  1972        1   140
##  3  1973        1    NA
##  4  1974        1    NA
##  5  1975        1    NA
##  6  1976        1   147
##  7  1977        1    NA
##  8  1978        1   168
##  9  1979        1   168
## 10  1980        1   175
## # ... with 1,466 more rows
…
34
3

35
1

36
6

There are rather a lot of missings. Let’s start with location 35 that has fewest missings:

y <- icefree_2 %>% filter(location==35)
y

## # A tibble: 41 x 3
##     year location  days
##    <int>    <int> <int>
##  1  1971       35    NA
##  2  1972       35   126
##  3  1973       35   154
##  4  1974       35    91
##  5  1975       35   140
##  6  1976       35   147
##  7  1977       35   168
##  8  1978       35   119
##  9  1979       35   119
## 10  1980       35   147
## # ... with 31 more rows
…
