…
SAS is venerable general-purpose statistical software, used in many fields. I learned it in grad school.

SAS has what is known as “permanent data sets”, stored in a file. This is a way of storing data so that it can be used immediately by SAS’s procs, without needing to read the data in via proc import or a data step.

I have a SAS permanent data set, with data on some cars, at the URL below:

my_url="http://www.utsc.utoronto.ca/~butler/c32/cars.sas7bdat"

This is read in using read_sas:

cars=read_sas(my_url)
cars

## # A tibble: 38 x 6
##    car                  mpg weight cylinders    hp country
##    <chr>              <dbl>  <dbl>     <dbl> <dbl> <chr>  
##  1 Buick Skylark       28.4   2.67      4.00  90.0 U.S.   
##  2 Dodge Omni          30.9   2.23      4.00  75.0 U.S.   
##  3 Mercury Zephyr      20.8   3.07      6.00  85.0 U.S.   
##  4 Fiat Strada         37.3   2.13      4.00  69.0 Italy  
##  5 Peugeot 694 SL      16.2   3.41      6.00 133   France 
##  6 VW Rabbit           31.9   1.92      4.00  71.0 Germany
##  7 Plymouth Horizon    34.2   2.20      4.00  70.0 U.S.   
##  8 Mazda GLC           34.1   1.98      4.00  65.0 Japan  
##  9 Buick Estate Wagon  16.9   4.36      8.00 155   U.S.   
## 10 Audi 5000           20.3   2.83      5.00 103   Germany
## # ... with 28 more rows
…
Note that rio reads a data.frame, not a tibble, but you can return a tibble if you want one:

my_url="http://www.utsc.utoronto.ca/~butler/c32/cars.sas7bdat"
cars=import(my_url,setclass="tibble")
cars

## # A tibble: 38 x 6
##    car                  mpg weight cylinders    hp country
##    <chr>              <dbl>  <dbl>     <dbl> <dbl> <chr>  
##  1 Buick Skylark       28.4   2.67      4.00  90.0 U.S.   
##  2 Dodge Omni          30.9   2.23      4.00  75.0 U.S.   
##  3 Mercury Zephyr      20.8   3.07      6.00  85.0 U.S.   
##  4 Fiat Strada         37.3   2.13      4.00  69.0 Italy  
##  5 Peugeot 694 SL      16.2   3.41      6.00 133   France 
##  6 VW Rabbit           31.9   1.92      4.00  71.0 Germany
##  7 Plymouth Horizon    34.2   2.20      4.00  70.0 U.S.   
##  8 Mazda GLC           34.1   1.98      4.00  65.0 Japan  
##  9 Buick Estate Wagon  16.9   4.36      8.00 155   U.S.   
## 10 Audi 5000           20.3   2.83      5.00 103   Germany
## # ... with 28 more rows
…
