R, it's OK I guess - A miscellany: mutate_at, rename_at, str_replace and summary
…
Take a look at this data set:

my_url="http://www.utsc.utoronto.ca/~butler/d29/jobs.txt"
(jobs0=read_table(my_url))

## Parsed with column specification:
## cols(
##   outdoor = col_double(),
##   social = col_double(),
##   conservative = col_double(),
##   job = col_double(),
##   id = col_double()
## )

## # A tibble: 244 x 5
##    outdoor social conservative   job    id
##      <dbl>  <dbl>        <dbl> <dbl> <dbl>
##  1      10     22            5     1     1
##  2      14     17            6     1     2
##  3      19     33            7     1     3
##  4      14     29           12     1     4
##  5      14     25            7     1     5
##  6      20     25           12     1     6
##  7       6     18            4     1     7
##  8      13     27            7     1     8
##  9      18     31            9     1     9
## 10      16     35           13     1    10
## # … with 234 more rows
…
## # A tibble: 3 x 2
##     job jobname   
##   <dbl> <chr>     
## 1     1 custserv  
## 2     2 mechanic  
## 3     3 dispatcher

and then look up those jobs. I carefully made the numerical jobs be called job in both places, so it’s the easy form of left_join. ⊕I have never used right_join. I think it would confuse me too much.

(jobs0 %>% left_join(lookup_tab) -> jobs)

## Joining, by = "job"

## # A tibble: 244 x 6
##    outdoor social conservative   job    id jobname 
##      <dbl>  <dbl>        <dbl> <dbl> <dbl> <chr>   
##  1      10     22            5     1     1 custserv
##  2      14     17            6     1     2 custserv
##  3      19     33            7     1     3 custserv
##  4      14     29           12     1     4 custserv
##  5      14     25            7     1     5 custserv
##  6      20     25           12     1     6 custserv
##  7       6     18            4     1     7 custserv
##  8      13     27            7     1     8 custserv
##  9      18     31            9     1     9 custserv
## 10      16     35           13     1    10 custserv
## # … with 234 more rows
…
