Ken's Blog - Carter and Guthrie
…
Testing:

d=processMatch(fname)
d

## Source: local data frame [565 x 6]
## Groups: inns [2]
## 
## # A tibble: 565 x 6
##     inns totalBalls isExtra isWkt wktDown totalRuns
##    <chr>      <dbl>   <lgl> <lgl>   <int>     <dbl>
##  1   1st          1    TRUE FALSE       0         1
##  2   1st          2   FALSE FALSE       0         0
##  3   1st          3   FALSE FALSE       0         0
##  4   1st          4   FALSE FALSE       0         0
##  5   1st          5   FALSE FALSE       0         1
##  6   1st          6   FALSE FALSE       0         0
##  7   1st          7   FALSE FALSE       0         0
##  8   1st          7   FALSE FALSE       0         0
##  9   1st          8   FALSE FALSE       0         1
## 10   1st          9   FALSE FALSE       0         0
## # ... with 555 more rows
…
We are going to apply our functions to a list of filenames (since they all take filenames as input: that was a design decision). Here, each function returns a data frame, so we use map from purrr to produce a list of data frames, which we then run through bind_rows to produce a big data frame with these rows stacked atop each other. This is something we’ll be doing a lot, so let’s make a function to do it all. v is a vector (of eg. file names) and f is a function that returns a data frame, so that my xx is a list of data frames:

atop=function(v,f) {
  xx=map(v,f)
  bind_rows(xx)
}

Since it doesn’t have a data frame as a first argument (I couldn’t make that work), it won’t work in a pipe.

We need to test this, so let’s check whether each of our match files has a complete first innings (which we’ll need to check anyway):

isComplete=atop(files,firstComplete)
isComplete

## # A tibble: 2,099 x 2
##                                      fname complete
##                                      <chr>    <lgl>
##  1  Afghanistan-Australia-2012-08-25.RData     TRUE
##  2 Afghanistan-Bangladesh-2015-02-18.RData     TRUE
##  3     Afghanistan-Canada-2012-03-18.RData    FALSE
##  4    Afghanistan-England-2012-09-21.RData    FALSE
##  5    Afghanistan-England-2015-03-13.RData    FALSE
##  6  Afghanistan-Hong Kong-2014-03-18.RData    FALSE
##  7  Afghanistan-Hong Kong-2015-07-21.RData    FALSE
##  8      Afghanistan-India-2010-05-01.RData    FALSE
##  9      Afghanistan-India-2012-09-19.RData    FALSE
## 10      Afghanistan-India-2014-03-05.RData     TRUE
## # ... with 2,089 more rows
…
construct the desired (big) data for these (just first innings)

Since atop returns a data frame, we can use it as the start of a pipe:

atop(files,matchInfo) %>% filter(type=="ODI") -> odis

## Warning in bind_rows_(x, .id): Unequal factor levels: coercing to character

## Warning in bind_rows_(x, .id): Unequal factor levels: coercing to character

atop(odis$fname,firstComplete) %>% filter(complete) -> complete.odis
complete.odis

## # A tibble: 1,040 x 2
##                                       fname complete
##                                       <chr>    <lgl>
##  1   Afghanistan-Australia-2012-08-25.RData     TRUE
##  2  Afghanistan-Bangladesh-2015-02-18.RData     TRUE
##  3       Afghanistan-India-2014-03-05.RData     TRUE
##  4     Afghanistan-Ireland-2015-01-17.RData     TRUE
##  5 Afghanistan-Netherlands-2012-03-29.RData     TRUE
##  6    Afghanistan-Pakistan-2012-02-10.RData     TRUE
##  7    Afghanistan-Pakistan-2014-02-27.RData     TRUE
##  8    Afghanistan-Scotland-2009-04-19.RData     TRUE
##  9    Afghanistan-Scotland-2015-01-14.RData     TRUE
## 10    Afghanistan-Scotland-2015-02-26.RData     TRUE
## # ... with 1,030 more rows

There are 1040 complete ODIs. Now to get the actual information, which we can expect to be slow:

atop(complete.odis$fname,processMatch) %>% 
  filter(inns=="1st") -> d
d

## Source: local data frame [307,956 x 6]
## Groups: inns [1]
## 
## # A tibble: 307,956 x 6
##     inns totalBalls isExtra isWkt wktDown totalRuns
##    <chr>      <dbl>   <lgl> <lgl>   <int>     <dbl>
##  1   1st          1   FALSE FALSE       0         0
##  2   1st          2   FALSE FALSE       0         0
##  3   1st          3   FALSE FALSE       0         0
##  4   1st          4   FALSE FALSE       0         1
##  5   1st          5   FALSE FALSE       0         0
##  6   1st          6   FALSE FALSE       0         0
##  7   1st          7   FALSE FALSE       0         0
##  8   1st          8   FALSE FALSE       0         0
##  9   1st          9   FALSE FALSE       0         0
## 10   1st         10   FALSE FALSE       0         0
## # ... with 307,946 more rows
…
