R, it's OK I guess - Distance between clusters
…
This works, but it isn’t very elegant (or very tidyverse).

I usually use crossing for this kind of thing, but the points in A and B have both an x and a y coordinate. I use a hack: unite to combine them together into one thing, then separate after making all possible pairs:

A %>% unite(coord, x, y) -> a1
B %>% unite(coord, x, y) -> b1
crossing(A_coord=a1$coord, B_coord=b1$coord) %>% 
  separate(A_coord, into=c("A_x", "A_y"), sep="_", convert=T) %>% 
  separate(B_coord, into=c("B_x", "B_y"), sep="_", convert=T) 

## # A tibble: 25 x 4
##      A_x   A_y   B_x   B_y
##    <dbl> <dbl> <dbl> <dbl>
##  1  11.2  11.7  22.8  26.8
##  2  11.2  11.7  27.4  30.0
##  3  11.2  11.7  28.8  37.3
##  4  11.2  11.7  35.2  34.2
##  5  11.2  11.7  35.7  31.3
##  6  19.0  15.0  22.8  26.8
##  7  19.0  15.0  27.4  30.0
##  8  19.0  15.0  28.8  37.3
##  9  19.0  15.0  35.2  34.2
## 10  19.0  15.0  35.7  31.3
## # … with 15 more rows
…
