…
The column ll is a list-column, and the usual way to handle these is to unnest, but that isn’t quite right here:

wisc %>% unnest(ll)

## # A tibble: 36 x 2
##    where            ll          
##    <chr>            <named list>
##  1 Appleton WI      <chr [1]>   
##  2 Appleton WI      <dbl [2]>   
##  3 Appleton WI      <bbox [4]>  
##  4 Beloit WI        <chr [1]>   
##  5 Beloit WI        <dbl [2]>   
##  6 Beloit WI        <bbox [4]>  
##  7 Fort.Atkinson WI <chr [1]>   
##  8 Fort.Atkinson WI <dbl [2]>   
##  9 Fort.Atkinson WI <bbox [4]>  
## 10 Madison WI       <chr [1]>   
## # … with 26 more rows
…
