R, it's OK I guess - A brief foray into list-columns
…
##  5     4 0.515491059
##  6     5 0.721621440
##  7     6 0.868857427
##  8     7 0.949987460
##  9     8 0.984757474
## 10     9 0.996347479
## 11    10 0.999327766
## 12    11 0.999908341
## 13    12 0.999991281
## 14    13 0.999999483
## 15    14 0.999999986
## 16    15 1.000000000
## 
## [[3]]
## # A tibble: 21 x 2
##        x         prob
##    <int>        <dbl>
##  1     0 1.855923e-05
##  2     1 2.873480e-04
##  3     2 2.136430e-03
##  4     3 1.017037e-02
##  5     4 3.489551e-02
##  6     5 9.218964e-02
##  7     6 1.959118e-01
##  8     7 3.461300e-01
##  9     8 5.228955e-01
## 10     9 6.935656e-01
## # ... with 11 more rows

which produces a list, or we can glue all the results together into a data frame:

map2(n,p,binom_table) %>% bind_rows(.id="which") %>% 
  print(n=20)

## # A tibble: 48 x 3
##    which     x        prob
##    <chr> <int>       <dbl>
##  1     1     0 0.056313515
##  2     1     1 0.244025230
##  3     1     2 0.525592804
##  4     1     3 0.775875092
##  5     1     4 0.921873093
##  6     1     5 0.980272293
##  7     1     6 0.996494293
##  8     1     7 0.999584198
##  9     1     8 0.999970436
## 10     1     9 0.999999046
## 11     1    10 1.000000000
## 12     2     0 0.004747562
## 13     2     1 0.035267600
## 14     2     2 0.126827715
## 15     2     3 0.296867928
## 16     2     4 0.515491059
## 17     2     5 0.721621440
## 18     2     6 0.868857427
## 19     2     7 0.949987460
## 20     2     8 0.984757474
## # ... with 28 more rows
…
For all three of these distributions, \(p<0.5\), so they are all right-skewed, and therefore we’d expect the mean to be bigger than the median. And, here, so it proves.

Onward and outward

If you actually want to see what’s in those dist data frames, you do so by piping this into unnest():

tibble(n=n,p=p) %>% mutate(dist=map2(n,p,binom_table)) %>% 
  mutate(median=map_dbl(dist,dist_median)) %>%
  mutate(mean=n*p) %>% unnest %>% print(n=30)

## # A tibble: 48 x 6
##        n     p median  mean     x         prob
##    <dbl> <dbl>  <dbl> <dbl> <int>        <dbl>
##  1    10  0.25      2   2.5     0 5.631351e-02
##  2    10  0.25      2   2.5     1 2.440252e-01
##  3    10  0.25      2   2.5     2 5.255928e-01
##  4    10  0.25      2   2.5     3 7.758751e-01
##  5    10  0.25      2   2.5     4 9.218731e-01
##  6    10  0.25      2   2.5     5 9.802723e-01
##  7    10  0.25      2   2.5     6 9.964943e-01
##  8    10  0.25      2   2.5     7 9.995842e-01
##  9    10  0.25      2   2.5     8 9.999704e-01
## 10    10  0.25      2   2.5     9 9.999990e-01
## 11    10  0.25      2   2.5    10 1.000000e+00
## 12    15  0.30      4   4.5     0 4.747562e-03
## 13    15  0.30      4   4.5     1 3.526760e-02
## 14    15  0.30      4   4.5     2 1.268277e-01
## 15    15  0.30      4   4.5     3 2.968679e-01
## 16    15  0.30      4   4.5     4 5.154911e-01
## 17    15  0.30      4   4.5     5 7.216214e-01
## 18    15  0.30      4   4.5     6 8.688574e-01
## 19    15  0.30      4   4.5     7 9.499875e-01
## 20    15  0.30      4   4.5     8 9.847575e-01
## 21    15  0.30      4   4.5     9 9.963475e-01
## 22    15  0.30      4   4.5    10 9.993278e-01
## 23    15  0.30      4   4.5    11 9.999083e-01
## 24    15  0.30      4   4.5    12 9.999913e-01
## 25    15  0.30      4   4.5    13 9.999995e-01
## 26    15  0.30      4   4.5    14 1.000000e+00
## 27    15  0.30      4   4.5    15 1.000000e+00
## 28    20  0.42      8   8.4     0 1.855923e-05
## 29    20  0.42      8   8.4     1 2.873480e-04
## 30    20  0.42      8   8.4     2 2.136430e-03
## # ... with 18 more rows
…
