R, it's OK I guess - Testing means and medians
…
library(tidyverse)
library(smmr) # see below

my_url="https://www.utsc.utoronto.ca/~butler/c32/namegame.txt"
names=read_delim(my_url, " ")

## Parsed with column specification:
## cols(
##   game = col_character(),
##   recall = col_integer()
## )

names

## # A tibble: 139 x 2
##    game   recall
##    <chr>   <int>
##  1 simple     24
##  2 simple     43
##  3 simple     38
##  4 simple     65
##  5 simple     35
##  6 simple     15
##  7 simple     44
##  8 simple     44
##  9 simple     18
## 10 simple     27
## # ... with 129 more rows
…
