R, it's OK I guess - How to change the significant digits in a tibble
…
## 
## Attaching package: 'lubridate'

## The following object is masked from 'package:base':
## 
##     date

Introduction

When you display a tibble, or a data frame as a tibble, it is made to look nice and to show the most important digits. Let’s illustrate with the inevitable mtcars:

as_tibble(mtcars)

## # A tibble: 32 x 11
##      mpg   cyl  disp    hp  drat    wt  qsec    vs    am  gear  carb
##  * <dbl> <dbl> <dbl> <dbl> <dbl> <dbl> <dbl> <dbl> <dbl> <dbl> <dbl>
##  1  21.0  6.00   160 110    3.90  2.62  16.5  0     1.00  4.00  4.00
##  2  21.0  6.00   160 110    3.90  2.88  17.0  0     1.00  4.00  4.00
##  3  22.8  4.00   108  93.0  3.85  2.32  18.6  1.00  1.00  4.00  1.00
##  4  21.4  6.00   258 110    3.08  3.22  19.4  1.00  0     3.00  1.00
##  5  18.7  8.00   360 175    3.15  3.44  17.0  0     0     3.00  2.00
##  6  18.1  6.00   225 105    2.76  3.46  20.2  1.00  0     3.00  1.00
##  7  14.3  8.00   360 245    3.21  3.57  15.8  0     0     3.00  4.00
##  8  24.4  4.00   147  62.0  3.69  3.19  20.0  1.00  0     4.00  2.00
##  9  22.8  4.00   141  95.0  3.92  3.15  22.9  1.00  0     4.00  2.00
## 10  19.2  6.00   168 123    3.92  3.44  18.3  1.00  0     4.00  4.00
## # ... with 22 more rows
…
Let’s read in the data:

myurl="http://www.utsc.utoronto.ca/~butler/c32/nenana.txt"
nenana=read_tsv(myurl)

## Parsed with column specification:
## cols(
##   Year = col_integer(),
##   JulianDate = col_double(),
##   `Date&Time` = col_character()
## )

nenana

## # A tibble: 87 x 3
##     Year JulianDate `Date&Time`         
##    <int>      <dbl> <chr>               
##  1  1917        120 April 30 at 11:30 AM
##  2  1918        131 May 11 at 9:33 AM   
##  3  1919        124 May 3 at 2:33 PM    
##  4  1920        132 May 11 at 10:46 AM  
##  5  1921        131 May 11 at 6:42 AM   
##  6  1922        133 May 12 at 1:20 PM   
##  7  1923        129 May 9 at 2:00 AM    
##  8  1924        133 May 11 at 3:10 PM   
##  9  1925        128 May 7 at 6:32 PM    
## 10  1926        117 April 26 at 4:03 PM 
## # ... with 77 more rows
…
There is a lot of variability, but since about 1960 there appears to be a downward trend in JulianDate: that is, the ice is typically melting earlier each year.

I wanted to see whether the Julian date had been calculated correctly. In particular, there is a function yday in lubridate that calculates the number of the day within a year from a date, and since we have the actual dates we can check this. The first step is to turn the Date&Time into a proper date-time, and the first part of that step is to glue the Year onto the front of it. I use str_c from stringr for this:

nenana %>% 
  mutate(long_date=str_c(Year," ",`Date&Time`)) %>% 
  mutate(dt=ymd_hm(long_date,tz="America/Anchorage")) %>% 
  select(-`Date&Time`)

## # A tibble: 87 x 4
##     Year JulianDate long_date                 dt                 
##    <int>      <dbl> <chr>                     <dttm>             
##  1  1917        120 1917 April 30 at 11:30 AM 1917-04-30 11:30:00
##  2  1918        131 1918 May 11 at 9:33 AM    1918-05-11 09:33:00
##  3  1919        124 1919 May 3 at 2:33 PM     1919-05-03 14:33:00
##  4  1920        132 1920 May 11 at 10:46 AM   1920-05-11 10:46:00
##  5  1921        131 1921 May 11 at 6:42 AM    1921-05-11 06:42:00
##  6  1922        133 1922 May 12 at 1:20 PM    1922-05-12 13:20:00
##  7  1923        129 1923 May 9 at 2:00 AM     1923-05-09 02:00:00
##  8  1924        133 1924 May 11 at 3:10 PM    1924-05-11 15:10:00
##  9  1925        128 1925 May 7 at 6:32 PM     1925-05-07 18:32:00
## 10  1926        117 1926 April 26 at 4:03 PM  1926-04-26 16:03:00
## # ... with 77 more rows

That seems to have worked. Note that lubridate has handled the AM/PM properly.
Now I can calculate the Julian dates from dt and compare with JulianDate that came from the data file:

nenana %>% 
  mutate(long_date=str_c(Year," ",`Date&Time`)) %>% 
  mutate(dt=ymd_hm(long_date,tz="America/Anchorage")) %>% 
  mutate(jd=yday(dt)) ->
nenana2 
nenana2 %>% 
  select(Year,JulianDate,jd)

## # A tibble: 87 x 3
##     Year JulianDate    jd
##    <int>      <dbl> <dbl>
##  1  1917        120   120
##  2  1918        131   131
##  3  1919        124   123
##  4  1920        132   132
##  5  1921        131   131
##  6  1922        133   132
##  7  1923        129   129
##  8  1924        133   132
##  9  1925        128   127
## 10  1926        117   116
## # ... with 77 more rows

Wait, some of these are not the same. Did the Ice Classic people make an error, or did I? (Place your bets now.)

There is a clue here, which is the dbl at the top of each column: these are decimal numbers that got rounded to 3 significant digits. What is it about the ones that got rounded wrong?

nenana2 %>% 
  filter(round(JulianDate) != round(jd)) %>% 
  select(Year, JulianDate, jd, `Date&Time`)

## # A tibble: 61 x 4
##     Year JulianDate    jd `Date&Time`        
##    <int>      <dbl> <dbl> <chr>              
##  1  1919        124   123 May 3 at 2:33 PM   
##  2  1922        133   132 May 12 at 1:20 PM  
##  3  1924        133   132 May 11 at 3:10 PM  
##  4  1925        128   127 May 7 at 6:32 PM   
##  5  1926        117   116 April 26 at 4:03 PM
##  6  1928        128   127 May 6 at 4:25 PM   
##  7  1929        126   125 May 5 at 3:41 PM   
##  8  1930        129   128 May 8 at 7:03 PM   
##  9  1933        129   128 May 8 at 7:30 PM   
## 10  1934        121   120 April 30 at 2:07 PM
## # ... with 51 more rows
…
Getting extra decimal places

When you display a tibble, the display is controlled by the package pillar (one of the many packages loaded by the tidyverse: the philosophy is that each aspect of the tidyverse is controlled by a separate relatively small package). So how do you control what pillar does? There is a variable pillar.sigfigs (that I had to do a fair amount of digging to find), which is set as an Option:

*** this doesn’t actually display with more decimals

options(pillar.sigfigs=100)
nenana2 %>% 
  filter(round(JulianDate) != round(jd)) %>% 
  select(JulianDate, jd
         ) %>% 
  print(width=80)

## # A tibble: 61 x 2
##    JulianDate    jd
##         <dbl> <dbl>
##  1        124   123
##  2        133   132
##  3        133   132
##  4        128   127
##  5        117   116
##  6        128   127
##  7        126   125
##  8        129   128
##  9        129   128
## 10        121   120
## # ... with 51 more rows
…
